{
  "project_info": {
    "project_number": "465037049425",
    "firebase_url": "https://smsbankingkalteng.firebaseio.com",
    "project_id": "smsbankingkalteng",
    "storage_bucket": "smsbankingkalteng.appspot.com"
  },
  "client": [
    {
      "client_info": {
        "mobilesdk_app_id": "1:465037049425:android:372fa8f56b9b506a",
        "android_client_info": {
          "package_name": "sgo.mobile.com.smsbanking"
        }
      },
      "oauth_client": [
        {
          "client_id": "465037049425-hlk5b5evrf6kao0pmj8ds374n90e44gh.apps.googleusercontent.com",
          "client_type": 1,
          "android_info": {
            "package_name": "sgo.mobile.com.smsbanking",
            "certificate_hash": "bcd76b4430eedca1edacc9f072a68b15bf9bf340"
          }
        },
        {
          "client_id": "465037049425-jr5nght9tm6u62sluklmt2p5l9n59evs.apps.googleusercontent.com",
          "client_type": 3
        }
      ],
      "api_key": [
        {
          "current_key": "AIzaSyA9UZwYTjEWNGk25ungKYEg45Bm_vmqA6A"
        }
      ],
      "services": {
        "analytics_service": {
          "status": 1
        },
        "appinvite_service": {
          "status": 2,
          "other_platform_oauth_client": [
            {
              "client_id": "465037049425-jr5nght9tm6u62sluklmt2p5l9n59evs.apps.googleusercontent.com",
              "client_type": 3
            }
          ]
        },
        "ads_service": {
          "status": 2
        }
      }
    }
  ],
  "configuration_version": "1"
}